<?xml version="1.0" encoding="UTF-8" standalone="no"?>
<!-- Uploaded to: SVG Repo, www.svgrepo.com, Generator: SVG Repo Mixer Tools -->

<svg
   xmlns:dc="http://purl.org/dc/elements/1.1/"
   xmlns:cc="http://creativecommons.org/ns#"
   xmlns:rdf="http://www.w3.org/1999/02/22-rdf-syntax-ns#"
   xmlns:svg="http://www.w3.org/2000/svg"
   xmlns="http://www.w3.org/2000/svg"
   xmlns:sodipodi="http://sodipodi.sourceforge.net/DTD/sodipodi-0.dtd"
   xmlns:inkscape="http://www.inkscape.org/namespaces/inkscape"
   width="120"
   height="240"
   viewBox="-1.5 0 2.7 5.4"
   id="meteor-icon-kit__solid-redo-s"
   version="1.1"
   sodipodi:docname="entendre.svg"
   style="fill:none"
   inkscape:version="0.92.5 (2060ec1f9f, 2020-04-08)">
  <metadata
     id="metadata9">
    <rdf:RDF>
      <cc:Work
         rdf:about="">
        <dc:format>image/svg+xml</dc:format>
        <dc:type
           rdf:resource="http://purl.org/dc/dcmitype/StillImage" />
        <dc:title />
      </cc:Work>
    </rdf:RDF>
  </metadata>
  <defs
     id="defs7" />
  <sodipodi:namedview
     pagecolor="#ffffff"
     bordercolor="#666666"
     borderopacity="1"
     objecttolerance="10"
     gridtolerance="10"
     guidetolerance="10"
     inkscape:pageopacity="0"
     inkscape:pageshadow="2"
     inkscape:window-width="1878"
     inkscape:window-height="1031"
     id="namedview5"
     showgrid="false"
     fit-margin-top="0"
     fit-margin-left="0"
     fit-margin-right="0"
     fit-margin-bottom="0"
     inkscape:zoom="2.36"
     inkscape:cx="-125.67113"
     inkscape:cy="139.23116"
     inkscape:window-x="42"
     inkscape:window-y="25"
     inkscape:window-maximized="1"
     inkscape:current-layer="meteor-icon-kit__solid-redo-s" />
  <style
     id="style850"
     type="text/css">
	.linesandangles_een{fill:#111918;}
</style>
  <path
     id="path852"
     d="m 0.67301218,1.0687079 c 0,0.3138873 -0.2070057,0.698937 -0.401829,0.9017217 -0.049405,0.05149 -0.084568,0.1114024 -0.121786,0.1746462 -0.090754,0.154707 -0.1936003,0.3299243 -0.5076761,0.3299243 -0.33901351,0 -0.47598754,-0.1938716 -0.56655324,-0.3222151 -0.022319,-0.031408 -0.043495,-0.061578 -0.062254,-0.080233 l 0.1325693,-0.1325784 c 0.030075,0.02998 0.055687,0.066289 0.082783,0.1047401 0.084377,0.1193495 0.1715672,0.2428391 0.41345463,0.2428391 0.206725,0 0.2621359,-0.094414 0.3459518,-0.2372714 0.039117,-0.06667 0.083535,-0.1422391 0.1482256,-0.209623 0.1680982,-0.1750269 0.3496065,-0.5199603 0.3496065,-0.7718744 0,-0.36190309 -0.2943859,-0.65627479 -0.6562764,-0.65627479 -0.36188883,0 -0.65627573,0.2943764 -0.65627573,0.65627479 H -1.0145563 c 0,-0.46521559 0.37857774,-0.84378389 0.84378296,-0.84378389 0.4652061,0 0.8437836,0.3785588 0.8437836,0.84378389 z m -1.21879801,0.3749897 h -0.093754 v 0.1874948 h 0.093752 c 0.11306791,0 0.28126131,-0.074903 0.28126131,-0.2812423 0,-0.1536601 -0.093191,-0.2343685 -0.1875091,-0.2655859 v -0.015228 c 5.645e-4,-0.047112 0.0166082,-0.28181339 0.2812615,-0.28181339 0.2646675,0 0.2806997,0.23465409 0.2812613,0.28171819 l 0.093752,-4.664e-4 h 0.093752 c 0,-0.16208309 -0.097973,-0.46878469 -0.4687704,-0.46878469 -0.37079721,0 -0.46877041,0.306654 -0.46877041,0.46878469 l 0.00132,0.1851631 0.091316,0.00233 c 0.043305,0.00117 0.09488,0.018083 0.09488,0.093747 0,0.075474 -0.051566,0.092653 -0.093752,0.093747 z"
     class="linesandangles_een"
     inkscape:connector-curvature="0"
     style="fill:#000000;fill-opacity:1;stroke-width:0.09375365" />
  <path
     id="path852-3"
     d="m 0.67301216,3.7687078 c 0,0.3138874 -0.20700569,0.6989371 -0.40182899,0.9017218 -0.049405,0.05149 -0.084568,0.1114024 -0.12178599,0.1746462 -0.090754,0.154707 -0.19360031,0.3299243 -0.5076761,0.3299243 -0.33901351,0 -0.47598754,-0.1938716 -0.56655324,-0.3222151 -0.022319,-0.031408 -0.043495,-0.061578 -0.062254,-0.080233 l 0.1325693,-0.1325784 c 0.030075,0.02998 0.055687,0.066289 0.082783,0.1047401 0.084377,0.1193495 0.1715672,0.2428391 0.41345462,0.2428391 0.20672501,0 0.26213589,-0.094414 0.34595179,-0.2372714 0.039117,-0.06667 0.083535,-0.1422391 0.14822561,-0.209623 0.16809849,-0.1750269 0.34960678,-0.5199603 0.34960678,-0.7718744 0,-0.3619032 -0.29438588,-0.6562748 -0.65627638,-0.6562748 -0.36188882,0 -0.65627572,0.2943764 -0.65627572,0.6562748 H -1.0145563 c 0,-0.4652157 0.37857774,-0.8437839 0.84378295,-0.8437839 0.46520611,0 0.84378359,0.3785587 0.84378359,0.8437839 z m -1.21879799,0.3749898 h -0.093754 v 0.1874948 h 0.093752 c 0.1130679,0 0.28126129,-0.074903 0.28126129,-0.2812423 0,-0.1536601 -0.093191,-0.2343686 -0.18750908,-0.265586 v -0.015228 c 5.6453e-4,-0.047112 0.0166082,-0.2818133 0.2812615,-0.2818133 0.2646675,0 0.28069969,0.2346541 0.28126129,0.2817181 l 0.093752,-4.664e-4 h 0.093752 c 0,-0.1620831 -0.097973,-0.4687847 -0.4687704,-0.4687847 -0.3707972,0 -0.4687704,0.306654 -0.4687704,0.4687847 l 0.00132,0.1851631 0.091316,0.00233 c 0.043305,0.00117 0.09488,0.018083 0.09488,0.093747 0,0.075474 -0.051566,0.092653 -0.093752,0.093747 z"
     class="linesandangles_een"
     inkscape:connector-curvature="0"
     style="fill:#000000;fill-opacity:1;stroke-width:0.09375366" />
  <rect
     style="opacity:1;vector-effect:none;fill:#ff0000;fill-opacity:1;stroke:#000000;stroke-width:0.00850394;stroke-linecap:butt;stroke-linejoin:miter;stroke-miterlimit:4;stroke-dasharray:none;stroke-dashoffset:0;stroke-opacity:1"
     id="rect23"
     width="0.75504619"
     height="0.75504619"
     x="-0.044741899"
     y="1.6528579" />
</svg>
